    102531.8    
    102722.2    
    102014.8    
    102344.2    
    102256.3    
    101723.0    
    102122.6    
    101955.8    
    101985.0    
    101989.2    
    102168.7    
    100745.5    
    102172.2    
    102595.1    
    102099.5    
    102416.3    
    102618.4    
    103052.8    
    102261.2    
