,pc1
0,1.9321844616886477
1,-0.9585827800252851
2,1.0034436643004867
3,-3.379504872814089
4,0.4232503782437316
5,0.9886740068874942
6,-2.9393258720392264
7,0.9903648581928419
8,-6.696540015484293
9,-3.261534040104676
10,-3.459666889229989
11,0.4198300908311248
12,-3.314706363907361
13,1.1851187556688652
14,0.2762470324371159
15,4.3693598912397995
16,-0.2997017215760711
17,-18.761723346523098
18,-11.161962862987744
