,data,hindcast,years
0,26568.099999999995,24388.653798276013,1999
1,25039.93333333333,26004.26515340908,2000
2,24516.2,25109.8699026099,2001
3,26315.566666666666,27280.73593767746,2002
4,24448.666666666668,25267.063606168038,2006
5,24064.933333333334,25071.730802216196,2008
6,27570.333333333332,26877.877586616614,2009
7,24423.56666666667,25206.164131628128,2011
8,30241.899999999998,26635.909776754506,2012
9,26707.93333333333,26946.617771564663,2013
10,26646.43333333333,27379.921471004545,2014
11,26428.533333333336,25117.04586436695,2017
12,20544.533333333336,21790.620596464916,2003
13,17429.033333333333,20570.879383011612,2004
14,20302.86666666667,19989.287496320543,2005
15,20203.899999999998,16778.626037068803,2007
16,21089.333333333332,20968.55774917247,2010
17,30990.100000000002,24706.081873175135,2015
18,24236.8,24120.809782145727,2016
